<?xml version="1.0" encoding="UTF-8" standalone="no"?>
<svg
   xmlns:dc="http://purl.org/dc/elements/1.1/"
   xmlns:cc="http://creativecommons.org/ns#"
   xmlns:rdf="http://www.w3.org/1999/02/22-rdf-syntax-ns#"
   xmlns:svg="http://www.w3.org/2000/svg"
   xmlns="http://www.w3.org/2000/svg"
   xmlns:sodipodi="http://sodipodi.sourceforge.net/DTD/sodipodi-0.dtd"
   xmlns:inkscape="http://www.inkscape.org/namespaces/inkscape"
   style="height: 512px; width: 512px;"
   viewBox="0 0 512 512"
   version="1.1"
   id="svg8"
   sodipodi:docname="shield-reflect.svg"
   inkscape:version="1.0.2 (e86c870879, 2021-01-15)">
  <metadata
     id="metadata14">
    <rdf:RDF>
      <cc:Work
         rdf:about="">
        <dc:format>image/svg+xml</dc:format>
        <dc:type
           rdf:resource="http://purl.org/dc/dcmitype/StillImage" />
      </cc:Work>
    </rdf:RDF>
  </metadata>
  <defs
     id="defs12" />
  <sodipodi:namedview
     pagecolor="#ffffff"
     bordercolor="#666666"
     borderopacity="1"
     objecttolerance="10"
     gridtolerance="10"
     guidetolerance="10"
     inkscape:pageopacity="0"
     inkscape:pageshadow="2"
     inkscape:window-width="771"
     inkscape:window-height="480"
     id="namedview10"
     showgrid="false"
     inkscape:zoom="1.6660156"
     inkscape:cx="256"
     inkscape:cy="256"
     inkscape:window-x="0"
     inkscape:window-y="27"
     inkscape:window-maximized="0"
     inkscape:current-layer="svg8" />
  <g
     class=""
     style=""
     transform="translate(0,0)"
     id="g6">
    <path
       d="M19.36 19.457l-.38 27.84 267.127 154.75-58.703 19.916 57.602 19.36L142.12 383.546l-19.214-19.213-51.47 114.324 123.125-43.482-17.492-18.95 151.868-151.87 12.433 43.078 22.976-68.5 56.675-16.565-57.475-15.492-22.934-79.828-14.145 48.266-268.65-155.41-38.454-.446zM370.614 81.94c-4.53.02-9.035.12-13.51.302-3.275.134-6.528.32-9.76.547l31.25 108.786 104.05 28.045c6.204-39.085 8.902-80.275 9.18-120.075C456.37 88.82 415.098 82.257 375.15 81.95c-1.514-.012-3.027-.015-4.537-.01zm-36.87 2.1c-31.99 3.653-61.013 12.153-83.014 25.87l64.493 37.31 18.52-63.18zm148.18 139.997L378.958 254.13l-38.93 116.054-20.268-70.225-39.07 39.067c18.814 35.364 46.1 62.287 86.175 77.604 47.473-17.834 78.566-62.795 98.014-121.6 7.323-22.14 12.905-46.11 17.042-70.993z"
       fill="#fff"
       fill-opacity="1"
       id="path4" />
  </g>
</svg>
