<?xml version="1.0" encoding="UTF-8" standalone="no"?>
<!-- Generator: Adobe Illustrator 19.0.0, SVG Export Plug-In . SVG Version: 6.00 Build 0)  -->

<svg
   xmlns:dc="http://purl.org/dc/elements/1.1/"
   xmlns:cc="http://creativecommons.org/ns#"
   xmlns:rdf="http://www.w3.org/1999/02/22-rdf-syntax-ns#"
   xmlns:svg="http://www.w3.org/2000/svg"
   xmlns="http://www.w3.org/2000/svg"
   xmlns:sodipodi="http://sodipodi.sourceforge.net/DTD/sodipodi-0.dtd"
   xmlns:inkscape="http://www.inkscape.org/namespaces/inkscape"
   version="1.1"
   id="Layer_1"
   x="0px"
   y="0px"
   viewBox="0 0 512.002 512.002"
   style="enable-background:new 0 0 512.002 512.002;"
   xml:space="preserve"
   sodipodi:docname="blinded.svg"
   inkscape:version="0.92.3 (2405546, 2018-03-11)"><metadata
   id="metadata43"><rdf:RDF><cc:Work
       rdf:about=""><dc:format>image/svg+xml</dc:format><dc:type
         rdf:resource="http://purl.org/dc/dcmitype/StillImage" /></cc:Work></rdf:RDF></metadata><defs
   id="defs41" /><sodipodi:namedview
   pagecolor="#ffffff"
   bordercolor="#666666"
   borderopacity="1"
   objecttolerance="10"
   gridtolerance="10"
   guidetolerance="10"
   inkscape:pageopacity="0"
   inkscape:pageshadow="2"
   inkscape:window-width="960"
   inkscape:window-height="1023"
   id="namedview39"
   showgrid="false"
   inkscape:zoom="1.303723"
   inkscape:cx="61.813646"
   inkscape:cy="256.00101"
   inkscape:window-x="960"
   inkscape:window-y="27"
   inkscape:window-maximized="0"
   inkscape:current-layer="Layer_1" />
<g
   id="g6"
   style="fill:#ffffff;fill-opacity:1;stroke:none;stroke-opacity:1">
	<g
   id="g4"
   style="fill:#ffffff;fill-opacity:1;stroke:none;stroke-opacity:1">
		<path
   d="M 511.275,251.005 C 490.756,181.953 441.25,120.948 372.373,87.345 l 25.374,-44.492 c 4.798,-8.413 1.868,-19.123 -6.546,-23.922 -8.416,-4.797 -19.124,-1.867 -23.922,6.547 l -27.676,48.53 C 196.787,26.86 43.351,107.56 0.727,251.005 c -0.969,3.26 -0.969,6.731 0,9.99 20.519,69.052 70.025,130.057 138.902,163.66 l -25.374,44.492 c -4.798,8.413 -1.868,19.123 6.546,23.922 8.426,4.804 19.13,1.857 23.922,-6.547 l 27.676,-48.53 c 142.816,47.148 296.252,-33.551 338.875,-176.998 0.97,-3.258 0.97,-6.729 10e-4,-9.989 z m -272.593,70.766 c 43.232,11.393 85.331,-21.431 85.331,-65.77 0,-18.607 -7.509,-35.891 -20.212,-48.416 l 15.183,-26.623 c 21.837,18.284 34.976,45.524 34.976,75.072 0,67.27 -66.774,114.881 -130.477,92.388 z M 157.05,394.112 C 97.728,365.914 54.753,314.418 35.896,256.001 74.147,137.502 200.398,69.292 321.812,105.203 l -15.731,27.584 C 218.995,97.288 122.968,161.57 122.968,256.036 c 0,43.103 20.61,81.476 52.487,105.802 z m 0.993,-138.077 c 0,-68.948 68.218,-114.397 130.455,-92.418 l -15.181,26.62 c -42.772,-11.31 -85.328,20.95 -85.328,65.764 0,18.902 7.756,36.019 20.245,48.357 l -15.195,26.644 c -21.377,-17.984 -34.996,-44.909 -34.996,-74.967 z m 32.146,150.764 15.704,-27.536 c 87.379,35.66 183.141,-29.142 183.141,-123.228 0,-42.322 -19.851,-81.156 -52.466,-105.906 l 18.385,-32.238 c 59.32,28.198 102.295,79.694 121.152,138.111 -38.249,118.497 -164.502,186.707 -285.916,150.797 z"
   id="path2"
   style="fill:#ffffff;fill-opacity:1;stroke:none;stroke-opacity:1"
   inkscape:connector-curvature="0"
   sodipodi:nodetypes="ccccccccccccccccsccsccccccsccsccsccsccscccc" />
	</g>
</g>
<g
   id="g8">
</g>
<g
   id="g10">
</g>
<g
   id="g12">
</g>
<g
   id="g14">
</g>
<g
   id="g16">
</g>
<g
   id="g18">
</g>
<g
   id="g20">
</g>
<g
   id="g22">
</g>
<g
   id="g24">
</g>
<g
   id="g26">
</g>
<g
   id="g28">
</g>
<g
   id="g30">
</g>
<g
   id="g32">
</g>
<g
   id="g34">
</g>
<g
   id="g36">
</g>
</svg>