<?xml version="1.0" encoding="UTF-8" standalone="no"?>
<!-- Generator: Adobe Illustrator 19.0.0, SVG Export Plug-In . SVG Version: 6.00 Build 0)  -->

<svg
   xmlns:dc="http://purl.org/dc/elements/1.1/"
   xmlns:cc="http://creativecommons.org/ns#"
   xmlns:rdf="http://www.w3.org/1999/02/22-rdf-syntax-ns#"
   xmlns:svg="http://www.w3.org/2000/svg"
   xmlns="http://www.w3.org/2000/svg"
   xmlns:sodipodi="http://sodipodi.sourceforge.net/DTD/sodipodi-0.dtd"
   xmlns:inkscape="http://www.inkscape.org/namespaces/inkscape"
   version="1.1"
   id="Layer_1"
   x="0px"
   y="0px"
   viewBox="0 0 512 512"
   style="enable-background:new 0 0 512 512;"
   xml:space="preserve"
   sodipodi:docname="unconscious.svg"
   inkscape:version="0.92.3 (2405546, 2018-03-11)"><metadata
   id="metadata55"><rdf:RDF><cc:Work
       rdf:about=""><dc:format>image/svg+xml</dc:format><dc:type
         rdf:resource="http://purl.org/dc/dcmitype/StillImage" /></cc:Work></rdf:RDF></metadata><defs
   id="defs53" /><sodipodi:namedview
   pagecolor="#ffffff"
   bordercolor="#666666"
   borderopacity="1"
   objecttolerance="10"
   gridtolerance="10"
   guidetolerance="10"
   inkscape:pageopacity="0"
   inkscape:pageshadow="2"
   inkscape:window-width="960"
   inkscape:window-height="1025"
   id="namedview51"
   showgrid="false"
   inkscape:zoom="0.4609375"
   inkscape:cx="-84.610169"
   inkscape:cy="256"
   inkscape:window-x="960"
   inkscape:window-y="27"
   inkscape:window-maximized="0"
   inkscape:current-layer="Layer_1" />
<g
   id="g6"
   style="fill:#ffffff;fill-opacity:1">
	<g
   id="g4"
   style="fill:#ffffff;fill-opacity:1">
		<path
   d="M130.802,491.191H38.238l98.937-80.424c3.29-2.695,4.532-7.079,3.102-11.086c-1.431-4.004-5.224-6.591-9.476-6.591H10.062    c-5.557,0-10.062,4.505-10.062,10.062c0,5.557,4.505,10.062,10.062,10.062h92.564L3.689,494.404    c-3.29,2.693-4.532,6.694-3.102,10.701c1.431,4.004,5.224,6.21,9.476,6.21h120.74c5.557,0,10.062-4.505,10.062-10.062    C140.864,495.696,136.358,491.191,130.802,491.191z"
   id="path2"
   style="fill:#ffffff;fill-opacity:1" />
	</g>
</g>
<g
   id="g12"
   style="fill:#ffffff;fill-opacity:1">
	<g
   id="g10"
   style="fill:#ffffff;fill-opacity:1">
		<path
   d="M251.542,289.958h-92.564l98.937-80.425c3.29-2.694,4.532-7.08,3.103-11.084c-1.431-4.005-5.224-6.592-9.476-6.592    h-120.74c-5.557,0-10.062,4.505-10.062,10.062c0,5.557,4.505,10.062,10.062,10.062h92.564l-98.937,81.191    c-3.29,2.693-4.532,6.694-3.103,10.701c1.431,4.004,5.224,6.21,9.476,6.21h120.74c5.557,0,10.062-4.505,10.062-10.062    C261.603,294.463,257.098,289.958,251.542,289.958z"
   id="path8"
   style="fill:#ffffff;fill-opacity:1" />
	</g>
</g>
<g
   id="g18"
   style="fill:#ffffff;fill-opacity:1">
	<g
   id="g16"
   style="fill:#ffffff;fill-opacity:1">
		<path
   d="M501.938,139.033H360.21L508.311,18.36c3.29-2.693,4.532-7.078,3.103-11.082c-1.431-4.005-5.224-6.592-9.476-6.592    H332.035c-5.557,0-10.062,4.505-10.062,10.062c0,5.557,4.505,10.062,10.062,10.062h141.728L325.661,142.246    c-3.29,2.693-4.532,6.697-3.102,10.701c1.431,4.005,5.224,6.21,9.476,6.21h169.903c5.557,0,10.062-4.505,10.062-10.062    C512,143.539,507.494,139.033,501.938,139.033z"
   id="path14"
   style="fill:#ffffff;fill-opacity:1" />
	</g>
</g>
<g
   id="g20">
</g>
<g
   id="g22">
</g>
<g
   id="g24">
</g>
<g
   id="g26">
</g>
<g
   id="g28">
</g>
<g
   id="g30">
</g>
<g
   id="g32">
</g>
<g
   id="g34">
</g>
<g
   id="g36">
</g>
<g
   id="g38">
</g>
<g
   id="g40">
</g>
<g
   id="g42">
</g>
<g
   id="g44">
</g>
<g
   id="g46">
</g>
<g
   id="g48">
</g>
</svg>